π*👁 :pi_times_eye:pi_oko:
π*🚪 :pi_times_door:pi_drzwi:
🤸🏼‍♀️🚊 :acrobat_suicide:
😑🔫 :jprdl_suicide:
🥲🔫 :tear_suicide:
💢😁🔫 :fuckup_suicide:
(❂‿❂) :on_drugs_1:
🕸🪝 :webhook:
✋🙂‍↕️ :baldwin:
🦇💩 :batshit:
🐂💩 :bullshit:
💥🎢 :wreck:
🕳🐇 :rabbithole:
🕳️👩‍🦯 :in_the_dark:blind_hole:
🧎‍♂️🏌️ :execution:beheading:
🤸\n   🦽🏌️‍♂️ :golf_a_person:
👊🤠🤚 :cowboy_fistbump:
😐👉      🚪 :go_out:
