{
  // "...": "From https://github.com/seme4eg/dotfiles",
  // "$schema": "/etc/xdg/swaync/configSchema.json",
  "positionX": "right",
  "positionY": "top",
  "layer": "overlay",
  "cssPriority": "user",
  // "control-center-margin-top": 0,
  // "control-center-margin-bottom": 0,
  // "control-center-margin-right": 0,
  // "control-center-margin-left": 0,
  "control-center-layer": "overlay",
  "notification-icon-size": 80,
  "notification-body-image-height": 100,
  "notification-body-image-width": 200,
  "timeout": 5,
  "timeout-low": 3,
  "timeout-critical": 0,
  "fit-to-screen": true,
  "control-center-width": 500,
  "control-center-height": 600,
  "notification-window-width": 470,
  "keyboard-shortcuts": true,
  "image-visibility": "when-available",
  // "transition-time": 200,
  "hide-on-clear": false,
  "hide-on-action": true,
  "script-fail-notify": true,
  "scripts": {
    "example-script": {
      "exec": "echo 'Do something...'",
      "urgency": "Normal"
    },
    "example-action-script": {
      "exec": "echo 'Do something actionable!'",
      "urgency": "Normal",
      "run-on": "action"
    }
  },
  "notification-visibility": {
    "example-name": {
      "state": "muted",
      "urgency": "Low",
      "app-name": "Spotify"
    }
  },
  "widgets": ["title", "inhibitors", "notifications", "dnd" ],
  "widget-config": {
    "inhibitors": {
      "text": "Inhibitors",
      "button-text": "Clear (inh)",
      "clear-all-button": true
    },
    "inhibitors": {
      "text": "Inhibitors",
      "button-text": "Clear (inh)",
      "clear-all-button": true
    },
    "title": {
      "text": "Notifications",
      "clear-all-button": false,
      "button-text": "Clear"
    },
    "dnd": {
      "text": "DND"
    },
    "mpris": {
      "image-size": 96,
      "image-radius": 13
    }
  }
}
